chapter4DV
…
The show that tends to last longer is action, crime, and drama.

Ratings change as the show starts to get into later seasons. At first they are pretty stable but than as it gets to later seasons its starts to change a lot.

The show on Drama, Family, Fantasy whose rating just plummeted is “Are You Afraid of the Dark”

Question 3

tv_ratings |>
  filter(av_rating >= 9) 

# A tibble: 93 × 7
   titleId   seasonNumber title                date       av_rating share genres
   <chr>            <dbl> <chr>                <date>         <dbl> <dbl> <chr> 
 1 tt3148266            3 12 Monkeys           2017-05-19      9.04  0.19 Adven…
 2 tt3148266            4 12 Monkeys           2018-06-26      9.14  0.38 Adven…
 3 tt3488298            2 American Crime       2016-02-03      9.14  0.17 Crime…
 4 tt0103352            1 Are You Afraid of t… 1993-04-17      9.17  8.27 Drama…
 5 tt0103352            2 Are You Afraid of t… 1993-08-10      9.24  6.98 Drama…
 6 tt0103352            3 Are You Afraid of t… 1994-02-23      9.43  2.6  Drama…
 7 tt0103352            4 Are You Afraid of t… 1994-11-18      9.31  2.15 Drama…
 8 tt2177489            5 Baby Daddy           2016-05-04      9.14  0.01 Comed…
 9 tt2017109            3 Banshee              2015-02-09      9.16  0.51 Actio…
10 tt2188671            5 Bates Motel          2017-03-23      9.06  0.4  Drama…
# ℹ 83 more rows
…
